EESchema Schematic File Version 4
EELAYER 30 0
EELAYER END
$Descr A4 11693 8268
encoding utf-8
Sheet 1 1
Title ""
Date "15 nov 2012"
Rev ""
Comp ""
Comment1 ""
Comment2 ""
Comment3 ""
Comment4 ""
$EndDescr
$Comp
L power:+5V #PWR01
U 1 1 580C1B61
P 3200 1325
F 0 "#PWR01" H 3200 1175 50  0001 C CNN
F 1 "+5V" H 3200 1465 50  0000 C CNN
F 2 "" H 3200 1325 50  0000 C CNN
F 3 "" H 3200 1325 50  0000 C CNN
	1    3200 1325
	1    0    0    -1  
$EndComp
Wire Wire Line
	3200 1325 3200 1475
Wire Wire Line
	3200 1475 3000 1475
Wire Wire Line
	3200 1575 3000 1575
Connection ~ 3200 1475
$Comp
L power:GND #PWR02
U 1 1 580C1D11
P 3100 3525
F 0 "#PWR02" H 3100 3275 50  0001 C CNN
F 1 "GND" H 3100 3375 50  0000 C CNN
F 2 "" H 3100 3525 50  0000 C CNN
F 3 "" H 3100 3525 50  0000 C CNN
	1    3100 3525
	1    0    0    -1  
$EndComp
Wire Wire Line
	3100 1675 3100 2075
Wire Wire Line
	3100 3075 3000 3075
Wire Wire Line
	3100 2875 3000 2875
Connection ~ 3100 3075
Wire Wire Line
	3100 2375 3000 2375
Connection ~ 3100 2875
Wire Wire Line
	3100 2075 3000 2075
Connection ~ 3100 2375
$Comp
L power:GND #PWR03
U 1 1 580C1E01
P 2400 3525
F 0 "#PWR03" H 2400 3275 50  0001 C CNN
F 1 "GND" H 2400 3375 50  0000 C CNN
F 2 "" H 2400 3525 50  0000 C CNN
F 3 "" H 2400 3525 50  0000 C CNN
	1    2400 3525
	1    0    0    -1  
$EndComp
Wire Wire Line
	2400 3375 2500 3375
Wire Wire Line
	2400 1875 2400 2675
Wire Wire Line
	2400 2675 2500 2675
Connection ~ 2400 3375
Connection ~ 2300 1475
Wire Wire Line
	2300 2275 2500 2275
Wire Wire Line
	2300 1475 2500 1475
Wire Wire Line
	2300 1325 2300 1475
$Comp
L power:+3.3V #PWR04
U 1 1 580C1BC1
P 2300 1325
F 0 "#PWR04" H 2300 1175 50  0001 C CNN
F 1 "+3.3V" H 2300 1465 50  0000 C CNN
F 2 "" H 2300 1325 50  0000 C CNN
F 3 "" H 2300 1325 50  0000 C CNN
	1    2300 1325
	1    0    0    -1  
$EndComp
Wire Wire Line
	2400 1875 2500 1875
Connection ~ 2400 2675
Wire Wire Line
	2500 1575 1350 1575
Wire Wire Line
	1350 1675 2500 1675
Wire Wire Line
	1350 1775 2500 1775
Wire Wire Line
	1350 2175 2500 2175
Wire Wire Line
	2500 2375 1350 2375
Wire Wire Line
	1350 2475 2500 2475
Wire Wire Line
	1350 2575 2500 2575
Wire Wire Line
	2500 2775 1350 2775
Wire Wire Line
	1350 2875 2500 2875
Wire Wire Line
	1350 2975 2500 2975
Wire Wire Line
	2500 3075 1350 3075
Wire Wire Line
	1350 3175 2500 3175
Wire Wire Line
	1350 3275 2500 3275
Wire Wire Line
	3000 3175 4050 3175
Wire Wire Line
	3000 3275 4050 3275
Wire Wire Line
	3000 2675 4050 2675
Wire Wire Line
	3000 2775 4050 2775
Wire Wire Line
	3000 2475 4050 2475
Wire Wire Line
	3000 2575 4050 2575
Wire Wire Line
	3000 2175 4050 2175
Wire Wire Line
	3000 2275 4050 2275
Wire Wire Line
	3000 1875 4050 1875
Wire Wire Line
	3000 1975 4050 1975
Wire Wire Line
	3000 1775 4050 1775
Wire Wire Line
	3000 2975 4050 2975
Text Label 1350 1575 0    50   ~ 0
GPIO2(SDA1)
Text Label 1350 1675 0    50   ~ 0
GPIO3(SCL1)
Text Label 1350 1775 0    50   ~ 0
GPIO4(GCLK)
Text Label 1350 1975 0    50   ~ 0
GPIO17(GEN0)
Text Label 1350 2075 0    50   ~ 0
GPIO27(GEN2)
Text Label 1350 2175 0    50   ~ 0
GPIO22(GEN3)
Text Label 1350 2375 0    50   ~ 0
GPIO10(SPI0_MOSI)
Text Label 1350 2475 0    50   ~ 0
GPIO9(SPI0_MISO)
Text Label 1350 2575 0    50   ~ 0
GPIO11(SPI0_SCK)
Text Label 1350 2775 0    50   ~ 0
ID_SD
Text Label 1350 2875 0    50   ~ 0
GPIO5
Text Label 1350 2975 0    50   ~ 0
GPIO6
Text Label 1350 3075 0    50   ~ 0
GPIO13(PWM1)
Text Label 1350 3175 0    50   ~ 0
GPIO19(SPI1_MISO)
Text Label 1350 3275 0    50   ~ 0
GPIO26
Text Label 4050 3275 2    50   ~ 0
GPIO20(SPI1_MOSI)
Text Label 4050 3175 2    50   ~ 0
GPIO16
Text Label 4050 2975 2    50   ~ 0
GPIO12(PWM0)
Text Label 4050 2775 2    50   ~ 0
ID_SC
Text Label 4050 2675 2    50   ~ 0
GPIO7(SPI1_CE_N)
Text Label 4050 2575 2    50   ~ 0
GPIO8(SPI0_CE_N)
Text Label 4050 2475 2    50   ~ 0
GPIO25(GEN6)
Text Label 4050 2275 2    50   ~ 0
GPIO24(GEN5)
Text Label 4050 2175 2    50   ~ 0
GPIO23(GEN4)
Text Label 4050 1975 2    50   ~ 0
GPIO18(GEN1)(PWM0)
Text Label 4050 1875 2    50   ~ 0
GPIO15(RXD0)
Text Label 4050 1775 2    50   ~ 0
GPIO14(TXD0)
Wire Wire Line
	3100 1675 3000 1675
Connection ~ 3100 2075
$Comp
L balena-pi-hat-rescue:Mounting_Hole-Mechanical MK1
U 1 1 5834FB2E
P 1250 4775
F 0 "MK1" H 1350 4821 50  0000 L CNN
F 1 "M2.5" H 1350 4730 50  0000 L CNN
F 2 "MountingHole:MountingHole_2.7mm_M2.5" H 1250 4775 60  0001 C CNN
F 3 "" H 1250 4775 60  0001 C CNN
	1    1250 4775
	1    0    0    -1  
$EndComp
$Comp
L balena-pi-hat-rescue:Mounting_Hole-Mechanical MK2
U 1 1 5834FC19
P 1700 4775
F 0 "MK2" H 1800 4821 50  0000 L CNN
F 1 "M2.5" H 1800 4730 50  0000 L CNN
F 2 "MountingHole:MountingHole_2.7mm_M2.5" H 1700 4775 60  0001 C CNN
F 3 "" H 1700 4775 60  0001 C CNN
	1    1700 4775
	1    0    0    -1  
$EndComp
Text Notes 675  4150 0    50   ~ 0
Mounting Holes
$Comp
L Connector_Generic:Conn_02x20_Odd_Even P1
U 1 1 59AD464A
P 2700 2375
F 0 "P1" H 2750 3492 50  0000 C CNN
F 1 "Conn_02x20_Odd_Even" H 2750 3401 50  0000 C CNN
F 2 "Connector_PinSocket_2.54mm:PinSocket_2x20_P2.54mm_Vertical" H -2150 1425 50  0001 C CNN
F 3 "" H -2150 1425 50  0001 C CNN
F 4 "S6104-ND" H 2700 2375 50  0001 C CNN "Digi-Key_PN"
	1    2700 2375
	1    0    0    -1  
$EndComp
Wire Wire Line
	3000 3375 4050 3375
Text Label 4050 3375 2    50   ~ 0
GPIO21(SPI1_SCK)
Wire Wire Line
	3200 1475 3200 1575
Wire Wire Line
	3100 3075 3100 3525
Wire Wire Line
	3100 2875 3100 3075
Wire Wire Line
	3100 2375 3100 2875
Wire Wire Line
	2400 3375 2400 3525
Wire Wire Line
	2300 1475 2300 2275
Wire Wire Line
	2400 2675 2400 3375
Wire Wire Line
	3100 2075 3100 2375
$Comp
L Device:R_Small R5
U 1 1 5E3BFF34
P 7050 2000
F 0 "R5" H 7109 2046 50  0000 L CNN
F 1 "10K" H 7109 1955 50  0000 L CNN
F 2 "Resistor_SMD:R_0603_1608Metric" H 7050 2000 50  0001 C CNN
F 3 "~" H 7050 2000 50  0001 C CNN
F 4 "311-10KGRCT-ND" H 7050 2000 50  0001 C CNN "Digi-Key_PN"
	1    7050 2000
	1    0    0    -1  
$EndComp
$Comp
L power:GND #PWR010
U 1 1 5E3C0B83
P 6450 2800
F 0 "#PWR010" H 6450 2550 50  0001 C CNN
F 1 "GND" H 6455 2627 50  0000 C CNN
F 2 "" H 6450 2800 50  0001 C CNN
F 3 "" H 6450 2800 50  0001 C CNN
	1    6450 2800
	1    0    0    -1  
$EndComp
Wire Wire Line
	6450 2600 6450 2700
Wire Wire Line
	6550 2600 6550 2700
Wire Wire Line
	6550 2700 6450 2700
Connection ~ 6450 2700
Wire Wire Line
	6450 2700 6450 2800
$Comp
L power:+3V3 #PWR09
U 1 1 5E3C40EC
P 6450 1700
F 0 "#PWR09" H 6450 1550 50  0001 C CNN
F 1 "+3V3" H 6465 1873 50  0000 C CNN
F 2 "" H 6450 1700 50  0001 C CNN
F 3 "" H 6450 1700 50  0001 C CNN
	1    6450 1700
	1    0    0    -1  
$EndComp
Wire Wire Line
	6450 1900 6450 1800
Wire Wire Line
	6550 1900 6550 1800
Wire Wire Line
	6550 1800 6450 1800
Connection ~ 6450 1800
Wire Wire Line
	6450 1800 6450 1700
$Comp
L Device:C_Small C2
U 1 1 5E3C71B8
P 8500 2000
F 0 "C2" H 8592 2046 50  0000 L CNN
F 1 "100n" H 8592 1955 50  0000 L CNN
F 2 "Capacitor_SMD:C_0603_1608Metric" H 8500 2000 50  0001 C CNN
F 3 "~" H 8500 2000 50  0001 C CNN
F 4 "399-1099-1-ND" H 8500 2000 50  0001 C CNN "Digi-Key_PN"
	1    8500 2000
	1    0    0    -1  
$EndComp
$Comp
L Device:R_Small R6
U 1 1 5E3C7E61
P 7450 2000
F 0 "R6" H 7509 2046 50  0000 L CNN
F 1 "10K" H 7509 1955 50  0000 L CNN
F 2 "Resistor_SMD:R_0603_1608Metric" H 7450 2000 50  0001 C CNN
F 3 "~" H 7450 2000 50  0001 C CNN
F 4 "311-10KGRCT-ND" H 7450 2000 50  0001 C CNN "Digi-Key_PN"
	1    7450 2000
	1    0    0    -1  
$EndComp
$Comp
L Device:R_Small R4
U 1 1 5E3C8192
P 5750 2000
F 0 "R4" H 5809 2046 50  0000 L CNN
F 1 "10K" H 5809 1955 50  0000 L CNN
F 2 "Resistor_SMD:R_0603_1608Metric" H 5750 2000 50  0001 C CNN
F 3 "~" H 5750 2000 50  0001 C CNN
F 4 "311-10KGRCT-ND" H 5750 2000 50  0001 C CNN "Digi-Key_PN"
	1    5750 2000
	1    0    0    -1  
$EndComp
Wire Wire Line
	6850 2200 7050 2200
Wire Wire Line
	7050 2200 7050 2100
Wire Wire Line
	6850 2300 7450 2300
Wire Wire Line
	7450 2300 7450 2100
$Comp
L power:+3V3 #PWR011
U 1 1 5E3CAB16
P 7050 1800
F 0 "#PWR011" H 7050 1650 50  0001 C CNN
F 1 "+3V3" H 7065 1973 50  0000 C CNN
F 2 "" H 7050 1800 50  0001 C CNN
F 3 "" H 7050 1800 50  0001 C CNN
	1    7050 1800
	1    0    0    -1  
$EndComp
$Comp
L power:+3V3 #PWR012
U 1 1 5E3CB0BA
P 7450 1800
F 0 "#PWR012" H 7450 1650 50  0001 C CNN
F 1 "+3V3" H 7465 1973 50  0000 C CNN
F 2 "" H 7450 1800 50  0001 C CNN
F 3 "" H 7450 1800 50  0001 C CNN
	1    7450 1800
	1    0    0    -1  
$EndComp
$Comp
L Device:C_Small C1
U 1 1 5E3CB91B
P 8100 2000
F 0 "C1" H 8192 2046 50  0000 L CNN
F 1 "100n" H 8192 1955 50  0000 L CNN
F 2 "Capacitor_SMD:C_0603_1608Metric" H 8100 2000 50  0001 C CNN
F 3 "~" H 8100 2000 50  0001 C CNN
F 4 "399-1099-1-ND" H 8100 2000 50  0001 C CNN "Digi-Key_PN"
	1    8100 2000
	1    0    0    -1  
$EndComp
Wire Wire Line
	5750 2200 5750 2100
$Comp
L power:+3V3 #PWR08
U 1 1 5E3CDB93
P 5750 1800
F 0 "#PWR08" H 5750 1650 50  0001 C CNN
F 1 "+3V3" H 5765 1973 50  0000 C CNN
F 2 "" H 5750 1800 50  0001 C CNN
F 3 "" H 5750 1800 50  0001 C CNN
	1    5750 1800
	1    0    0    -1  
$EndComp
Wire Wire Line
	5750 1800 5750 1900
Wire Wire Line
	7050 1800 7050 1900
Wire Wire Line
	7450 1800 7450 1900
$Comp
L Device:R_Small R2
U 1 1 5E3D428D
P 5300 2000
F 0 "R2" H 5359 2046 50  0000 L CNN
F 1 "10K" H 5359 1955 50  0000 L CNN
F 2 "Resistor_SMD:R_0603_1608Metric" H 5300 2000 50  0001 C CNN
F 3 "~" H 5300 2000 50  0001 C CNN
F 4 "311-10KGRCT-ND" H 5300 2000 50  0001 C CNN "Digi-Key_PN"
	1    5300 2000
	1    0    0    -1  
$EndComp
$Comp
L power:+3V3 #PWR06
U 1 1 5E3D482B
P 5300 1800
F 0 "#PWR06" H 5300 1650 50  0001 C CNN
F 1 "+3V3" H 5315 1973 50  0000 C CNN
F 2 "" H 5300 1800 50  0001 C CNN
F 3 "" H 5300 1800 50  0001 C CNN
	1    5300 1800
	1    0    0    -1  
$EndComp
Wire Wire Line
	5300 2300 5300 2100
Wire Wire Line
	5300 1900 5300 1800
$Comp
L power:+3V3 #PWR013
U 1 1 5E3DAAF4
P 8300 1800
F 0 "#PWR013" H 8300 1650 50  0001 C CNN
F 1 "+3V3" H 8315 1973 50  0000 C CNN
F 2 "" H 8300 1800 50  0001 C CNN
F 3 "" H 8300 1800 50  0001 C CNN
	1    8300 1800
	1    0    0    -1  
$EndComp
$Comp
L power:GND #PWR014
U 1 1 5E3DB2D9
P 8300 2250
F 0 "#PWR014" H 8300 2000 50  0001 C CNN
F 1 "GND" H 8305 2077 50  0000 C CNN
F 2 "" H 8300 2250 50  0001 C CNN
F 3 "" H 8300 2250 50  0001 C CNN
	1    8300 2250
	1    0    0    -1  
$EndComp
Wire Wire Line
	8100 1900 8100 1800
Wire Wire Line
	8100 1800 8300 1800
Wire Wire Line
	8500 1900 8500 1800
Wire Wire Line
	8500 1800 8300 1800
Connection ~ 8300 1800
Wire Wire Line
	8100 2100 8100 2250
Wire Wire Line
	8100 2250 8300 2250
Wire Wire Line
	8500 2100 8500 2250
Wire Wire Line
	8500 2250 8300 2250
Connection ~ 8300 2250
Text GLabel 7600 2300 2    50   Input ~ 0
SDA
Wire Wire Line
	7600 2300 7450 2300
Connection ~ 7450 2300
Text GLabel 5650 2200 0    50   Input ~ 0
SCL
Wire Wire Line
	5300 2300 6050 2300
Wire Wire Line
	5650 2200 5750 2200
Text GLabel 1350 1675 0    50   Input ~ 0
SCL
Text GLabel 1350 1575 0    50   Input ~ 0
SDA
$Comp
L Device:LED D1
U 1 1 5E3E9855
P 9800 2625
F 0 "D1" V 9839 2508 50  0000 R CNN
F 1 "LED_G" V 9748 2508 50  0000 R CNN
F 2 "LED_SMD:LED_0603_1608Metric_Castellated" H 9800 2625 50  0001 C CNN
F 3 "~" H 9800 2625 50  0001 C CNN
F 4 "732-4980-1-ND" V 9800 2625 50  0001 C CNN "Digi-Key_PN"
	1    9800 2625
	0    -1   -1   0   
$EndComp
$Comp
L Device:LED D2
U 1 1 5E3EAA5E
P 10250 2625
F 0 "D2" V 10289 2508 50  0000 R CNN
F 1 "LED_R" V 10198 2508 50  0000 R CNN
F 2 "LED_SMD:LED_0603_1608Metric_Castellated" H 10250 2625 50  0001 C CNN
F 3 "~" H 10250 2625 50  0001 C CNN
F 4 "475-2512-1-ND" V 10250 2625 50  0001 C CNN "Digi-Key_PN"
	1    10250 2625
	0    -1   -1   0   
$EndComp
$Comp
L Device:R_Small R1
U 1 1 5E3EADF6
P 9800 2275
F 0 "R1" H 9859 2321 50  0000 L CNN
F 1 "330R" H 9859 2230 50  0000 L CNN
F 2 "Resistor_SMD:R_0603_1608Metric" H 9800 2275 50  0001 C CNN
F 3 "~" H 9800 2275 50  0001 C CNN
F 4 "P330HDKR-ND" H 9800 2275 50  0001 C CNN "Digi-Key_PN"
	1    9800 2275
	1    0    0    -1  
$EndComp
$Comp
L Device:R_Small R3
U 1 1 5E3EB287
P 10250 2275
F 0 "R3" H 10309 2321 50  0000 L CNN
F 1 "330R" H 10309 2230 50  0000 L CNN
F 2 "Resistor_SMD:R_0603_1608Metric" H 10250 2275 50  0001 C CNN
F 3 "~" H 10250 2275 50  0001 C CNN
F 4 "P330HDKR-ND" H 10250 2275 50  0001 C CNN "Digi-Key_PN"
	1    10250 2275
	1    0    0    -1  
$EndComp
$Comp
L power:GND #PWR05
U 1 1 5E3EB52F
P 9800 2925
F 0 "#PWR05" H 9800 2675 50  0001 C CNN
F 1 "GND" H 9805 2752 50  0000 C CNN
F 2 "" H 9800 2925 50  0001 C CNN
F 3 "" H 9800 2925 50  0001 C CNN
	1    9800 2925
	1    0    0    -1  
$EndComp
$Comp
L power:GND #PWR07
U 1 1 5E3EB7D7
P 10250 2925
F 0 "#PWR07" H 10250 2675 50  0001 C CNN
F 1 "GND" H 10255 2752 50  0000 C CNN
F 2 "" H 10250 2925 50  0001 C CNN
F 3 "" H 10250 2925 50  0001 C CNN
	1    10250 2925
	1    0    0    -1  
$EndComp
Text GLabel 9800 2025 1    50   Input ~ 0
LED_GREEN
Text GLabel 10250 2025 1    50   Input ~ 0
LED_RED
Wire Wire Line
	9800 2025 9800 2175
Wire Wire Line
	10250 2025 10250 2175
Wire Wire Line
	9800 2375 9800 2475
Wire Wire Line
	10250 2375 10250 2475
Wire Wire Line
	9800 2775 9800 2925
Wire Wire Line
	10250 2775 10250 2925
Text GLabel 1250 1975 0    50   Input ~ 0
LED_GREEN
Text GLabel 1250 2075 0    50   Input ~ 0
LED_RED
Wire Wire Line
	1250 1975 2500 1975
Wire Wire Line
	1250 2075 2500 2075
$Comp
L power:PWR_FLAG #FLG01
U 1 1 5E3FC2D4
P 3175 5000
F 0 "#FLG01" H 3175 5075 50  0001 C CNN
F 1 "PWR_FLAG" H 3175 5173 50  0000 C CNN
F 2 "" H 3175 5000 50  0001 C CNN
F 3 "~" H 3175 5000 50  0001 C CNN
	1    3175 5000
	-1   0    0    1   
$EndComp
$Comp
L power:PWR_FLAG #FLG02
U 1 1 5E3FCD1F
P 3575 5000
F 0 "#FLG02" H 3575 5075 50  0001 C CNN
F 1 "PWR_FLAG" H 3575 5173 50  0000 C CNN
F 2 "" H 3575 5000 50  0001 C CNN
F 3 "~" H 3575 5000 50  0001 C CNN
	1    3575 5000
	-1   0    0    1   
$EndComp
$Comp
L power:PWR_FLAG #FLG03
U 1 1 5E3FD005
P 4025 4600
F 0 "#FLG03" H 4025 4675 50  0001 C CNN
F 1 "PWR_FLAG" H 4025 4773 50  0000 C CNN
F 2 "" H 4025 4600 50  0001 C CNN
F 3 "~" H 4025 4600 50  0001 C CNN
	1    4025 4600
	1    0    0    -1  
$EndComp
$Comp
L power:+3.3V #PWR015
U 1 1 5E3FD541
P 3175 4600
F 0 "#PWR015" H 3175 4450 50  0001 C CNN
F 1 "+3.3V" H 3175 4740 50  0000 C CNN
F 2 "" H 3175 4600 50  0000 C CNN
F 3 "" H 3175 4600 50  0000 C CNN
	1    3175 4600
	1    0    0    -1  
$EndComp
$Comp
L power:+5V #PWR016
U 1 1 5E3FDBD4
P 3575 4600
F 0 "#PWR016" H 3575 4450 50  0001 C CNN
F 1 "+5V" H 3575 4740 50  0000 C CNN
F 2 "" H 3575 4600 50  0000 C CNN
F 3 "" H 3575 4600 50  0000 C CNN
	1    3575 4600
	1    0    0    -1  
$EndComp
$Comp
L power:GND #PWR017
U 1 1 5E3FE1F7
P 4025 5000
F 0 "#PWR017" H 4025 4750 50  0001 C CNN
F 1 "GND" H 4025 4850 50  0000 C CNN
F 2 "" H 4025 5000 50  0000 C CNN
F 3 "" H 4025 5000 50  0000 C CNN
	1    4025 5000
	1    0    0    -1  
$EndComp
Wire Wire Line
	3175 4600 3175 5000
Wire Wire Line
	3575 4600 3575 5000
Wire Wire Line
	4025 4600 4025 5000
NoConn ~ 1350 1775
NoConn ~ 1350 2175
NoConn ~ 1350 2375
NoConn ~ 1350 2475
NoConn ~ 1350 2575
NoConn ~ 1350 2775
NoConn ~ 1350 2875
NoConn ~ 1350 2975
NoConn ~ 1350 3075
NoConn ~ 1350 3175
NoConn ~ 1350 3275
NoConn ~ 4050 1975
NoConn ~ 4050 2175
NoConn ~ 4050 2275
NoConn ~ 4050 2475
NoConn ~ 4050 2575
NoConn ~ 4050 2675
NoConn ~ 4050 2775
NoConn ~ 4050 2975
NoConn ~ 4050 3175
NoConn ~ 4050 3275
NoConn ~ 4050 3375
Wire Notes Line
	600  600  4350 600 
Wire Notes Line
	4350 600  4350 3850
Wire Notes Line
	4350 3850 600  3850
Wire Notes Line
	600  3850 600  600 
Text Notes 675  725  0    50   ~ 0
Raspberry Pi Connector
Wire Notes Line
	4700 625  4700 3825
Wire Notes Line
	4700 3825 8900 3825
Wire Notes Line
	8900 3825 8900 625 
Wire Notes Line
	8900 625  4700 625 
Text Notes 4775 750  0    50   ~ 0
BME280
Wire Notes Line
	9125 3825 10825 3825
Wire Notes Line
	10825 3825 10825 625 
Wire Notes Line
	10825 625  9125 625 
Wire Notes Line
	9125 625  9125 3825
Text Notes 9200 750  0    50   ~ 0
LEDs
Wire Notes Line
	600  4025 2575 4025
Wire Notes Line
	2575 4025 2575 5475
Wire Notes Line
	2575 5475 600  5475
Wire Notes Line
	600  5475 600  4025
Wire Notes Line
	2725 5475 4375 5475
Wire Notes Line
	4375 5475 4375 4025
Wire Notes Line
	4375 4025 2725 4025
Wire Notes Line
	2725 4025 2725 5475
Text Notes 2800 4150 0    50   ~ 0
Power Flags
Connection ~ 5750 2200
Wire Wire Line
	6050 2200 5750 2200
$Comp
L dk_Pressure-Sensors-Transducers:BMP280 U1
U 1 1 5E3BF345
P 6450 2300
F 0 "U1" H 6650 2050 60  0000 L CNN
F 1 "BME280" H 6000 2050 60  0000 L CNN
F 2 "digikey-footprints:Pressure_Sensor_LGA-8_2.5x2.5mm_BME280" H 6650 2500 60  0001 L CNN
F 3 "https://ae-bst.resource.bosch.com/media/_tech/media/datasheets/BST-BME280-DS002.pdf" H 6650 2600 60  0001 L CNN
F 4 "828-1063-1-ND" H 6650 2700 60  0001 L CNN "Digi-Key_PN"
F 5 "BME280" H 6650 2800 60  0001 L CNN "MPN"
F 6 "Sensors, Transducers" H 6650 2900 60  0001 L CNN "Category"
	1    6450 2300
	1    0    0    -1  
$EndComp
Text GLabel 4050 1775 2    50   Input ~ 0
TX
Text GLabel 4050 1875 2    50   Input ~ 0
RX
$Comp
L Connector:Conn_01x04_Male J1
U 1 1 5E3F2552
P 5550 4775
F 0 "J1" H 5656 5053 50  0000 C CNN
F 1 "Conn_01x04_Male" H 5525 4975 50  0000 C CNN
F 2 "Connector_JST:JST_PH_B4B-PH-K_1x04_P2.00mm_Vertical" H 5550 4775 50  0001 C CNN
F 3 "~" H 5550 4775 50  0001 C CNN
F 4 "455-1706-ND" H 5550 4775 50  0001 C CNN "Digi-Key_PN"
	1    5550 4775
	1    0    0    -1  
$EndComp
$Comp
L power:GND #PWR019
U 1 1 5E3F2663
P 6200 5075
F 0 "#PWR019" H 6200 4825 50  0001 C CNN
F 1 "GND" H 6200 4925 50  0000 C CNN
F 2 "" H 6200 5075 50  0000 C CNN
F 3 "" H 6200 5075 50  0000 C CNN
	1    6200 5075
	1    0    0    -1  
$EndComp
$Comp
L power:+5V #PWR018
U 1 1 5E3F284E
P 5925 4500
F 0 "#PWR018" H 5925 4350 50  0001 C CNN
F 1 "+5V" H 5925 4640 50  0000 C CNN
F 2 "" H 5925 4500 50  0000 C CNN
F 3 "" H 5925 4500 50  0000 C CNN
	1    5925 4500
	1    0    0    -1  
$EndComp
Text GLabel 5925 4875 2    50   Input ~ 0
RX
Text GLabel 5925 4975 2    50   Input ~ 0
TX
Wire Wire Line
	5925 4875 5750 4875
Wire Wire Line
	5925 4975 5750 4975
Wire Wire Line
	5750 4675 5925 4675
Wire Wire Line
	5925 4675 5925 4500
Wire Wire Line
	5750 4775 6200 4775
Wire Wire Line
	6200 4775 6200 5075
Wire Notes Line
	4700 4050 7100 4050
Wire Notes Line
	7100 4050 7100 5450
Wire Notes Line
	7100 5450 4700 5450
Wire Notes Line
	4700 5450 4700 4050
Text Notes 4800 4200 0    50   ~ 0
GPS conn
$EndSCHEMATC
